44,90.8,2
44,88.2,2
44,85.5,0
-
41,90.6,2
41.2,88,3
41.2,85,5
+
38.1,90.2,10
38.4,87.3,20
38.8,83.8,25
-
35.4,86.5,60
36.7,84.3,60
37.5,81,60
-
34.3,82.5,40
35.4,79.7,40
36.5,77.2,45
-
32.3,80.5,15
33,78,12
33.8,75,8
+
29.8,80.4,3
30.3,77.5,3
30.5,74.7,3
-
27,80.2,1
27.3,77.5,2
27.5,74.7,2
-
24,80.2,1
24.3,77.4,2
24.4,74.5,1
-
20.9,79.9,3
21.2,77.1,2
21.4,74.4,1
-
17.9,79.6,5
18.2,77,5
18.3,74.3,4
-
15.1,79.1,8
15.4,76.5,9
15.5,73.8,9
-
11.5,77.8,20
12.3,75,24
13,72.5,27
+
8,73.8,55
9.7,71.5,65
11.2,70.3,75
-
8.3,66.8,125
10.2,66.6,125
12,66,122
-
9.4,61.8,70
11.2,61.4,75
13,61.1,8011
-
7.4,58.3,40
8.8,57,40
10.5,55.8,35
+
5,54,65
6.6,53,65
7.9,52,65
-
4.2,48.4,88
5.9,48,90
7.5,47.2,94
-
4.6,42.5,101
6.3,42.5,103
8,42.5,106
-
5.6,36.7,113
7.4,36.9,110
9.2,37.4,114
-
7.2,30.8,117
9,31.2,119
10.85,32,119
-
9,25,120
10.8,25.8,123
12.6,27.2,123
+
11.8,17.8,155
13,20.7,150
14.3,23.2,155
-
16,15.7,155
16.4,18.8,160
17.2,22.5,157
-
18.7,12.7,153
19.3,16.3,150
19.8,20,150
-
21.8,10.5,170
22.3,14.1,173
22.6,18,173
-
25.7,11,203
25.5,14.8,203
25.2,18.3,203
+
29.5,14.8,212
28.6,17.6,211
27.7,20.5,210
-
32.3,17.8,214
31.2,20.1,212
30.1,23,213
-
35,21,217
33.7,23,217
32.4,25.4,213
+
37.5,24.5,230
35.8,25.9,240
34.2,28,230
-
37.8,29.3,288
36.2,30.3,275
34.8,31.5,280
-
37.6,33.5,260
36.1,34.4,255
34.7,35.5,266
+
38.6,37.5,238
37,38.6,240
35.4,39.6,243
-
40.3,41.2,233
38.6,42.7,232
37.1,44.3,233
-
42.1,45.3,230
40.6,46.8,228
39.2,48.5,228
-
44.3,48.8,217
43,50.5,215
41.7,52.6,218
-
47,51.2,202
46,53.2,205
45,55.5,205
-
49.9,52.5,190
49,55,193
48.3,57.5,193
-
53,52.8,182
52.5,55.7,180
52,58.2,182
-
56.2,52.4,173
56.2,55,173
56,57.8,173
-
59.6,51,160
59.8,53.6,160
59.8,56.5,163
-
62.8,48.5,160
63.1,51,156
63.5,53.8,160
-
66.1,46.5,165
66.3,49,165
66.5,51.5,165
-
69.6,45.2,175
69.6,47.7,174
69.6,50.2,172
-
73,45.8,197
72.7,48.5,200
72.4,51,200
-
76,48.2,205
75.4,50.5,205
74.9,53,205
-
78.5,50.5,205
78.2,53,205
77.6,55.5,205
-
81.5,53.1,205
81,55.3,205
80.3,57.6,205
-
84,55.2,205
83.5,57.3,205
82.9,59.7,202
+
87,57.4,204
85.9,59.1,204
85.1,61.2,202
-
90,60.7,235
88.4,61.9,235
86.9,63.3,235
-
90.4,66.3,286
88.7,66.5,282
86.8,66.6,290
+
89.5,71,290
88,70.5,292
86.3,70,292
-
88.7,75.3,290
87.2,74.3,297
85.6,73.5,292
+
87.7,79.8,299
86.2,78.2,305
84.7,76.3,325
-
84.7,84.5,355
84,81.1,350
83.4,78.9,355
-
81.4,83.2,15
81.2,80.2,15
80.8,77.8,15
+
78.75,81.8,15
78.5,79,12
78.5,76.7,10
+
76.5,80.5,350
76,78,350
75.4,75.7,0
-
75,82.4,280
74.2,79.5,300
72.8,77.3,310
-
74.8,86.8,305
73.2,84.2,295
71.9,82.2,285
-
72.7,91.8,330
71.8,88.3,325
70.9,85.8,340
+
69.5,93.4,355
69.3,90.3,355
68.9,87,0
-
66.7,93.3,6
66.7,90,6
66.7,86.5,4
-
64.1,92.7,7
64.3,89.3,6
64.2,86,3
-
61.7,91.9,5
61.7,88.8,3
61.7,85.5,0
-
59.3,91.5,2
59.3,88.6,0
59.3,85.7,0
-
56.7,91.3,1
56.7,88.5,0
56.8,85.6,0
-
54.1,91.1,1
54.1,88.5,0
54.1,85.5,1
-
51.5,91.1,1
51.5,88.4,1
51.5,85.5,1
-
49,90.9,0
49,88.4,1
49,85.5,1
-
46.5,90.9,0
46.5,88.4,0
46.5,85.5,0
END
46.7,76.5,0
BOX
46.7,80.1,0